%!PS-Adobe-3.0 EPSF-3.0 
%%BoundingBox: 0 0 70 119
%%Pages: 0
%%Creator: LibreOffice 3.5
%%Title: none
%%CreationDate: none
%%LanguageLevel: 2
%%EndComments
%%BeginProlog
%%BeginResource: procset SDRes-Prolog 1.0 0
/b4_inc_state save def
/dict_count countdictstack def
/op_count count 1 sub def
userdict begin
0 setgray 0 setlinecap 1 setlinewidth 0 setlinejoin 10 setmiterlimit[] 0 setdash newpath
/languagelevel where {pop languagelevel 1 ne {false setstrokeadjust false setoverprint} if} if
/bdef {bind def} bind def
/c {setrgbcolor} bdef
/l {neg lineto} bdef
/rl {neg rlineto} bdef
/lc {setlinecap} bdef
/lj {setlinejoin} bdef
/lw {setlinewidth} bdef
/ml {setmiterlimit} bdef
/ld {setdash} bdef
/m {neg moveto} bdef
/ct {6 2 roll neg 6 2 roll neg 6 2 roll neg curveto} bdef
/r {rotate} bdef
/t {neg translate} bdef
/s {scale} bdef
/sw {show} bdef
/gs {gsave} bdef
/gr {grestore} bdef
/f {findfont dup length dict begin
{1 index /FID ne {def} {pop pop} ifelse} forall /Encoding ISOLatin1Encoding def
currentdict end /NFont exch definefont pop /NFont findfont} bdef
/p {closepath} bdef
/sf {scalefont setfont} bdef
/ef {eofill}bdef
/pc {closepath stroke}bdef
/ps {stroke}bdef
/pum {matrix currentmatrix}bdef
/pom {setmatrix}bdef
/bs {/aString exch def /nXOfs exch def /nWidth exch def currentpoint nXOfs 0 rmoveto pum nWidth aString stringwidth pop div 1 scale aString show pom moveto} bdef
%%EndResource
%%EndProlog
%%BeginSetup
%%EndSetup
%%Page: 1 1
%%BeginPageSetup
%%EndPageSetup
pum
0.02843 0.02838 s 
0 -4192 t
/tm matrix currentmatrix def
tm setmatrix
-8097 -7998 t 
1 1 s 

pum
8347 11314 t
0.003 0.003 0.003 c 1807 -670 m  1807 -559 1788 -460 1752 -372 ct 1716 -285 1663 -211 1594 -151 ct 
1524 -91 1438 -45 1336 -13 ct 1233 18 1115 34 983 34 ct 833 34 706 15 604 -22 ct 
501 -59 416 -109 350 -170 ct 283 -232 233 -302 200 -380 ct 166 -459 145 -540 134 -624 ct 
455 -653 l  464 -589 481 -530 505 -478 ct 530 -425 564 -379 606 -341 ct 649 -304 701 -274 763 -254 ct 
825 -233 898 -223 983 -223 ct 1140 -223 1262 -261 1351 -338 ct 1440 -415 1485 -529 1485 -681 ct 
1485 -770 1465 -842 1425 -897 ct 1385 -951 1336 -994 1277 -1024 ct 1218 -1055 1154 -1075 1084 -1086 ct 
1015 -1096 951 -1101 892 -1101 ct 716 -1101 l  716 -1370 l  885 -1370 l  944 -1370 1005 -1376 1068 -1388 ct 
1131 -1400 1189 -1422 1241 -1453 ct 1293 -1485 1336 -1527 1370 -1581 ct 1404 -1635 1421 -1704 1421 -1788 ct 
1421 -1918 1383 -2020 1306 -2095 ct 1230 -2171 1117 -2208 966 -2208 ct 830 -2208 719 -2173 635 -2103 ct 
550 -2033 501 -1934 487 -1807 ct 176 -1831 l  188 -1938 218 -2031 263 -2110 ct 
309 -2189 368 -2255 438 -2307 ct 509 -2359 590 -2398 680 -2424 ct 771 -2450 867 -2463 970 -2463 ct 
1105 -2463 1222 -2446 1319 -2412 ct 1417 -2378 1497 -2332 1559 -2274 ct 1621 -2216 1666 -2148 1695 -2070 ct 
1725 -1992 1739 -1909 1739 -1821 ct 1739 -1750 1730 -1683 1710 -1621 ct 1691 -1559 1660 -1503 1619 -1454 ct 
1578 -1405 1525 -1362 1461 -1327 ct 1398 -1291 1321 -1264 1231 -1246 ct 1231 -1239 l 
1329 -1228 1414 -1206 1486 -1172 ct 1559 -1139 1618 -1096 1665 -1046 ct 1712 -995 1748 -938 1771 -874 ct 
1795 -809 1807 -742 1807 -670 ct p ef
pom
0 4192 t 
pom
count op_count sub {pop} repeat countdictstack dict_count sub {end} repeat b4_inc_state restore
%%PageTrailer
%%Trailer
%%EOF
